{
    "data": [
        {
            "id": 1,
            "title": "trainee contract"
        },
        {
            "id": 2,
            "title": "3 months contract"
        },
        {
            "id": 3,
            "title": "3 months probationary"
        },
        {
            "id": 4,
            "title": "6 months probationary"
        },
        {
            "id": 5,
            "title": "1 yr.fixed contract "
        },
        {
            "id": 6,
            "title": "10 yr.fixed contract"
        }
    ]
}