{
    "header": {
        "message": "Views Data",
        "status": 200
    },
    "data": [{
        "id": 1,
        "date":"2015-11-02",
        "availment": "2015-06-16",
        "name": "Martin",
	"request": "Time-in/Time-Out",
	"status":"Pending Approval"
    },{

	"id": 2,
        "date":"2015-12-03",
        "availment": "2015-07-17",
        "name": "Jajang",
	"request": "Change Shift",
	"status":"Pending Approval"
    },{

	"id": 2,
        "date":"2015-12-03",
        "availment": "2015-07-17",
        "name": "Usep",
	"request": "Over Time",
	"status":"Pending Approval"
    },{

	"id": 2,
        "date":"2015-12-03",
        "availment": "2015-07-17",
        "name": "Adhy",
	"request": "Undertime",
	"status":"Pending Approval"
    },{

	"id": 2,
        "date":"2015-12-03",
        "availment": "2015-07-17",
        "name": "Fashal",
	"request": "Late/Early Out Exemption",
	"status":"Pending Approval"
    },{

	"id": 2,
        "date":"2015-12-03",
        "availment": "2015-07-17",
        "name": "Agus",
	"request": "Training",
	"status":"Pending Approval"
    },{

	"id": 2,
        "date":"2015-12-03",
        "availment": "2015-07-17",
        "name": "Dodo ",
	"request": "Swaft Shift",
	"status":"Pending Approval"
    }]
}