{
    "header": {
        "message": "Views Data",
        "status": 200
    },
    "data": 
			[
				{
					"id": 1,
					
					"leave":[
								{
								
									"applied" : "Applied For : Expat Department"
								
								},{
								
									"departemnt" : "Department : Default"
								
								},{
								
									"start": "Start From : Training"
								
								},{
								
									"entitled" : "Entitled days : Calendar Days"
								
								}
								
							],
					
					"year": "1",
					"entitled": "24",
					"day": "28"
				}
			]
}